	accession	description	lineage	seqhash	dna_profile	aa_profile	fs_profile	num_mut	num_mut_in_spike	num_snp	num_snp_in_spike	num_in	num_in_in_spike	num_del	num_del_in_spike	num_N
0	seq1	seq1	B.1.177	Rq3jowiGV6RV3wyUAI5xIndv0nU	C241T T445C C3037T C4021T C6040T C6286T C8090T C14408T G21255C C21727T C22227T A23403G C24208T T25612G C25714T G25726T C26801G C27944T C28932T T28934C G29645T	ORF1a:L2609F ORF1b:L2609F ORF1b:P4715L S:A222V S:D614G ORF3a:S74A ORF3a:L108F ORF3a:V112F N:A220V ORF10:V30L		21	4	21	4	0	0	0	0	229
1	seq10	seq10	B.1	6d4XHFlwmGn+edGhXlI4joO0Ha0	C241T C1627G G2407A T3034C C3037T G5008T C6633T G8084A C8311T C9319T del:11288:9 G11521T C12473T C14403T C14408T C15324T G19962A C20603T C21575T C21637T T22191C G23012A A23403G T24194C G24368A C24378T C24642T G25565A G26211T C26606T T26767C G27459T del:28271:1 C28311T G28404T G28875T C28887T	ORF1a:A2123V ORF1a:E2607K ORF1a:del:3675:3 ORF1a:M3752I ORF1b:A2123V ORF1b:E2607K ORF1b:del:3675:3 ORF1b:M3752I ORF1b:P4715L ORF1b:S6780L S:L5F S:I210T S:E484K S:D614G S:D936N S:S939F S:T1027I ORF3a:S58N M:I82T ORF7a:E22D N:P13L N:G44V N:S201I N:T205I		37	9	35	9	0	0	2	0	19
2	seq11	seq11	A.27	O2i7m+HEadctdsPXn9V+QPKpp70	A361G C1122T C2509T C8782T A9204G A11217G C11824T A12030G C16293T C16466T A18366G A20262G C21614T G22468T T22917G A23063T C23520T C23525T G23948T G25218T T25541C A25910G del:26160:8 C27247T del:27386:1 T28144C del:28248:6 A28273T G28878A G29688C G29742A	ORF1a:P286L ORF1a:D2980G ORF1a:N3651S ORF1a:Q3922R ORF1b:P286L ORF1b:D2980G ORF1b:N3651S ORF1b:Q3922R ORF1b:P5401L S:L18F S:L452R S:N501Y S:A653V S:H655Y S:D796Y S:G1219V ORF3a:V50A ORF3a:D173G ORF3a:del:256:4 ORF6:del:62:1 ORF8:L84S ORF8:del:119:2 N:S202N	del:26160:8 del:27386:1	31	8	28	8	0	0	3	0	20
3	seq12	seq12	A.27	LW3s6CwR4/3uKdwoZmIEM4o1i9w	A361G C1122T C2509T C8782T A9204G A11217G C16293T C16466T A18366G A20262G C21614T G22468T T22917G A23063T C23520T C23525T G23948T G25218T T25541C A25910G del:26160:8 C27247T del:27386:1 T28144C del:28248:6 A28273T G28878A G29688C G29742A	ORF1a:P286L ORF1a:D2980G ORF1a:N3651S ORF1b:P286L ORF1b:D2980G ORF1b:N3651S ORF1b:P5401L S:L18F S:L452R S:N501Y S:A653V S:H655Y S:D796Y S:G1219V ORF3a:V50A ORF3a:D173G ORF3a:del:256:4 ORF6:del:62:1 ORF8:L84S ORF8:del:119:2 N:S202N	del:26160:8 del:27386:1	29	8	26	8	0	0	3	0	47
4	seq13	seq13	B.1.1.7	d1H3ssJ3xq55J9SVmqkGeduSdaA	C241T C913T C3037T C3267T C3874T C5388A C5944T C5986T T6954C C7000T del:11288:9 C14408T C14676T T15096C C15279T T16176C C19524T del:21765:6 G21786T del:21991:3 T22016C A23063T C23271A A23403G C23506T C23604A C23709T T24506G G24914C A25048T C27972T G28048T A28095T A28111G del:28271:1 G28280C A28281T T28282A G28314A G28881A G28882A G28883C G28884C C28977T	ORF1a:T1001I ORF1a:A1708D ORF1a:I2230T ORF1a:del:3675:3 ORF1b:T1001I ORF1b:A1708D ORF1b:I2230T ORF1b:del:3675:3 ORF1b:P4715L S:del:68:3 S:G75V S:del:143:2 S:W152R S:N501Y S:A570D S:D614G S:P681H S:T716I S:S982A S:D1118H ORF8:Q27* ORF8:R52I ORF8:K68* ORF8:Y73C N:D3L N:R14H N:R203K N:G204P N:S235F		44	13	40	11	0	0	4	2	65
5	seq14	seq14	A.27	qQ9JLtp9PYvh6Yi6vg9GPB3UOpU	A361G C1122T C2509T C5055T C8782T A9204G A11217G C16293T C16466T A18366G A20262G C21614T G22468T T22917G A23063T C23520T C23525T G23948T G25218T T25541C del:26160:8 C27247T del:27386:1 T28144C del:28248:6 A28273T G28878A G29688C G29742A	ORF1a:P286L ORF1a:T1597I ORF1a:D2980G ORF1a:N3651S ORF1b:P286L ORF1b:T1597I ORF1b:D2980G ORF1b:N3651S ORF1b:P5401L S:L18F S:L452R S:N501Y S:A653V S:H655Y S:D796Y S:G1219V ORF3a:V50A ORF3a:del:256:4 ORF6:del:62:1 ORF8:L84S ORF8:del:119:2 N:S202N	del:26160:8 del:27386:1	29	8	26	8	0	0	3	0	22
6	seq15	seq15	B.1.177	JMbkZu+NIbpWf2boAll9yF9pk1k	C241T T445C C3037T C6286T C13358A A13456G C14408T C19524T G21255C C21304A G21305A C22227T T22399C A23403G G25599C C26801G C26936T G28056A C28932T G29645T A29725G	ORF1a:L4365I ORF1b:L4365I ORF1b:P4715L ORF1b:R7014N S:A222V S:D614G ORF3a:W69C ORF8:A55T N:A220V ORF10:V30L		21	3	21	3	0	0	0	0	33
7	seq16	seq16	B.1.177	r08PG5+KehZxsXXS0VXoF87wchc	C241T T445C C3037T C4021T C6040T C6286T C8090T C14408T G21255C C22227T A23403G C24208T T25612G C25642T C25714T G25726T C26801G C27944T C28932T T28934C G29645T	ORF1a:L2609F ORF1b:L2609F ORF1b:P4715L S:A222V S:D614G ORF3a:S74A ORF3a:L108F ORF3a:V112F N:A220V ORF10:V30L		21	3	21	3	0	0	0	0	47
8	seq17	seq17	B.1.1.7	1jAbVEf7G/0M+S9JBWaORBaNyEE	C241T C913T C2453T C3037T C3267T C5388A C5986T C6432T T6954C del:11288:9 C14408T C14676T C15279T T16176C del:21765:6 G21974C del:21991:3 A23063T C23271A A23403G C23604A C23709T T24506G G24914C C27972T G28048T A28111G del:28271:1 G28280C A28281T T28282A G28881A G28882A G28883C C28977T	ORF1a:L730F ORF1a:T1001I ORF1a:A1708D ORF1a:T2056I ORF1a:I2230T ORF1a:del:3675:3 ORF1b:L730F ORF1b:T1001I ORF1b:A1708D ORF1b:T2056I ORF1b:I2230T ORF1b:del:3675:3 ORF1b:P4715L S:del:68:3 S:D138H S:del:143:2 S:N501Y S:A570D S:D614G S:P681H S:T716I S:S982A S:D1118H ORF8:Q27* ORF8:R52I ORF8:Y73C N:D3L N:R203K N:G204R N:S235F		35	10	31	8	0	0	4	2	22
9	seq18	seq18	B.1.1.7	I92DuM9E/0S4Od+0hfPdx+JSNtU	C241T C913T C2453T C3037T C3267T C5388A C5986T C6432T T6954C del:11288:9 C11747T C14408T C14676T C15279T T16176C del:21765:6 G21974C del:21991:3 A23063T C23271A A23403G C23604A C23709T T24506G G24914C C27972T G28048T A28111G del:28271:1 G28280C A28281T T28282A G28881A G28882A G28883C C28977T	ORF1a:L730F ORF1a:T1001I ORF1a:A1708D ORF1a:T2056I ORF1a:I2230T ORF1a:del:3675:3 ORF1b:L730F ORF1b:T1001I ORF1b:A1708D ORF1b:T2056I ORF1b:I2230T ORF1b:del:3675:3 ORF1b:P4715L S:del:68:3 S:D138H S:del:143:2 S:N501Y S:A570D S:D614G S:P681H S:T716I S:S982A S:D1118H ORF8:Q27* ORF8:R52I ORF8:Y73C N:D3L N:R203K N:G204R N:S235F		36	10	32	8	0	0	4	2	65
10	seq19	seq19	B.1	277z2z2UUDq8rT7qCFGktu+yTQk	C241T G2407A C3037T G3937A G4910C G5008T C6633T C6720T G8084A C8311T C9319T del:11288:9 G11521T C12473T G12569A C14403T C14408T C15324T G19962A C21637T T22191C G23012A A23403G T24194C G24368A C24378T C24642T G26211T C26606T T26767C G27459T del:27698:6 C27847T del:28271:1 C28311T G28875T C28887T G29759T	ORF1a:E1549Q ORF1a:A2123V ORF1a:T2152I ORF1a:E2607K ORF1a:del:3675:3 ORF1a:M3752I ORF1a:V4102I ORF1b:E1549Q ORF1b:A2123V ORF1b:T2152I ORF1b:E2607K ORF1b:del:3675:3 ORF1b:M3752I ORF1b:V4102I ORF1b:P4715L S:I210T S:E484K S:D614G S:D936N S:S939F S:T1027I M:I82T ORF7a:E22D ORF7a:del:102:3 ORF7b:S31L N:P13L N:S201I N:T205I		38	8	35	8	0	0	3	0	53
11	seq2	seq2	B.1	NXa/fGp3L5xZ4/haMOcingHN4w8	C241T G376T T469C G1640A C2358T C3037T G7675T T7767C T7984C C8047T T11459G C13862T C14408T C17104T G18214A C18796T T19203C A20268G C22879A A23403G C24023T C26198T C28697T G29734C G29800A	ORF1a:E37D ORF1a:V459I ORF1a:A698V ORF1a:I2501T ORF1a:S3732A ORF1b:E37D ORF1b:V459I ORF1b:A698V ORF1b:I2501T ORF1b:S3732A ORF1b:T4533I ORF1b:P4715L ORF1b:H5614Y ORF1b:G5984S S:N439K S:D614G ORF3a:T269M N:P142S		25	3	25	3	0	0	0	0	1197
12	seq20	seq20	B.1.177	ajebzsC1ld8oMS/p9YrTepccE/A	C241T T445C C1513T C3037T A3298G C6286T A9204G C14408T G20302A G21255C C22227T G22346T C22377T A23403G C26801G C28932T G29645T	ORF1a:D2980G ORF1b:D2980G ORF1b:P4715L ORF1b:E6680K S:A222V S:A262S S:P272L S:D614G N:A220V ORF10:V30L		17	4	17	4	0	0	0	0	57
13	seq21	seq21	B.1.177	Pe2Sa1QcBz9wN9c6nw/POw34FAY	G204T C241T T445C C3037T T3532G A3569G C6286T C6310T C14408T A19385C G21255C C21614T C22227T G23009T A23403G C24334T A26528T A26748G C26801G C27944T G28727T C28932T G29645T	ORF1a:D1089E ORF1a:S1102G ORF1b:D1089E ORF1b:S1102G ORF1b:P4715L ORF1b:D6374A S:L18F S:A222V S:V483F S:D614G M:I76V N:A152S N:A220V ORF10:V30L		23	5	23	5	0	0	0	0	74
14	seq22	seq22	BJ.1	6DV6bwx6s2eLT2iEQZjxkpTtrUI	del:1:54 C241T A405G T670G C1377G C2790T G4184A G7790A C9344T A9424G C9534T C9866T C10029T G10447A C10449A del:11288:9 C12880T C14408T C14571T G15451A C15714T C15738T T15939C T16342C C17410T T17859C A18163G C19955T A20055G C21618T del:21633:9 T21810C G21987A C22109G T22200A G22577C G22578A T22882G G22895C T22896C G22898A G22992A C22995A T23010C A23013C T23030G A23040G A23055G A23063T T23075C A23403G C23525T T23599G C23604A C23854A G23948T G23955A A24424T T24469A G24570T C24912T C25000T C26060T C26270T G26529T C26577G G26709A C26858T A27259C G27382C A27383T T27384C T27722C C27807T A28271T del:28362:9 G28881A G28882A G28883C C29118T A29510C G29511T del:29734:26 del:29837:67	ORF1a:K47R ORF1a:S135R ORF1a:P371R ORF1a:T842I ORF1a:G1307S ORF1a:G2509S ORF1a:L3027F ORF1a:T3090I ORF1a:L3201F ORF1a:T3255I ORF1a:P3395H ORF1a:del:3675:3 ORF1b:K47R ORF1b:S135R ORF1b:P371R ORF1b:T842I ORF1b:G1307S ORF1b:G2509S ORF1b:L3027F ORF1b:T3090I ORF1b:L3201F ORF1b:T3255I ORF1b:P3395H ORF1b:del:3675:3 ORF1b:P4715L ORF1b:G5063S ORF1b:S5360P ORF1b:R5716C ORF1b:I5967V ORF1b:T6564I S:T19I S:del:24:4 S:V83A S:G142D S:Q183E S:V213E S:G339H S:N440K S:V445P S:G446S S:S477N S:T478K S:V483A S:E484A S:F490V S:Q493R S:Q498R S:N501Y S:Y505H S:D614G S:H655Y S:N679K S:P681H S:N764K S:D796Y S:G798D S:Q954H S:N969K S:S1003I S:T1117I ORF3a:T223I E:T9I M:D3Y M:Q19E M:A63T ORF6:D61L ORF7a:I110T N:del:30:4 N:R203K N:G204R N:T282I N:S413L		84	33	78	32	0	0	6	1	988
15	seq23	seq23	B.1	bt714ClezBlaOzZv6s91hWZe0vI	C241T G376T T469C G1640A C2358T C3037T G7675T T7767C T7984C C8047T T11459G C13862T C14408T C17104T G18214A C18796T T19203C T20061C A20268G C22879A A23403G C24023T C26198T G28851T G28975T G29734C	ORF1a:E37D ORF1a:V459I ORF1a:A698V ORF1a:I2501T ORF1a:S3732A ORF1b:E37D ORF1b:V459I ORF1b:A698V ORF1b:I2501T ORF1b:S3732A ORF1b:T4533I ORF1b:P4715L ORF1b:H5614Y ORF1b:G5984S S:N439K S:D614G ORF3a:T269M N:S193I N:M234I		26	3	26	3	0	0	0	0	697
16	seq24	seq24	A.27	vJPlCnaiHFReksQozwCyCzjSAMk	A361G C1122T C2509T C8782T A9204G A11217G C16293T C16466T A18366G A20262G C21614T G22468T T22917G A23063T C23520T C23525T G23948T G25218T T25541C A25910G del:26160:8 C27247T del:27386:1 G27996T T28144C A28273T G28878A G29688C G29742A	ORF1a:P286L ORF1a:D2980G ORF1a:N3651S ORF1b:P286L ORF1b:D2980G ORF1b:N3651S ORF1b:P5401L S:L18F S:L452R S:N501Y S:A653V S:H655Y S:D796Y S:G1219V ORF3a:V50A ORF3a:D173G ORF3a:del:256:4 ORF6:del:62:1 ORF8:D35Y ORF8:L84S N:S202N	del:26160:8 del:27386:1	29	8	27	8	0	0	2	0	23
17	seq25	seq25	B.1.177	zUSlK7nQx90QxJkOD+J8dx8gX5s	G204T C241T T445C T597C T1492C C1913T C3037T C4276T C6286T C12439T C14408T C14697T T18837C G21255C C21614T C22227T A23403G C26060T C26801G C27944T T28251G C28253T A28254C C28932T C29284T G29645T	ORF1a:V111A ORF1a:R550C ORF1b:V111A ORF1b:R550C ORF1b:P4715L S:L18F S:A222V S:D614G ORF3a:T223I ORF8:F120V ORF8:I121L N:A220V ORF10:V30L		26	3	26	3	0	0	0	0	63
18	seq26	seq26	B.1.177	jjKgJaX+fu6rfl8+kjeMAcLzBZg	C241T T445C C3037T C6286T C13358A A13456G C14408T C19524T G21255C C21304A G21305A C22227T T22399C A23403G G25599C C26801G C26936T G28056A C28932T G29645T A29725G	ORF1a:L4365I ORF1b:L4365I ORF1b:P4715L ORF1b:R7014N S:A222V S:D614G ORF3a:W69C ORF8:A55T N:A220V ORF10:V30L		21	3	21	3	0	0	0	0	64
19	seq27	seq27	B.1	cHVXo4RHkekp+vGmSn1dF/IACY0	C241T G376T T469C C2469T C3037T T7767C T7984C C8047T T11459G C14408T C16658T C17104T G18214A C18796T C18894T A20268G C22879A C23191T A23403G C25658T G28851T A29700G G29734C	ORF1a:E37D ORF1a:A735V ORF1a:I2501T ORF1a:S3732A ORF1b:E37D ORF1b:A735V ORF1b:I2501T ORF1b:S3732A ORF1b:P4715L ORF1b:T5465I ORF1b:H5614Y ORF1b:G5984S S:N439K S:D614G ORF3a:T89I N:S193I		23	3	23	3	0	0	0	0	25
20	seq28	seq28	B.1.177	OtHdfWGgWZ4HYBtQjfZxDKH0m80	C241T T445C C3037T T5619C C6286T C13358A A13456G C14408T G18021T C19524T G21255C C21304A G21305A C22227T A23403G C26801G C26936T G28056A C28932T G29645T	ORF1a:I1785T ORF1a:L4365I ORF1b:I1785T ORF1b:L4365I ORF1b:P4715L ORF1b:R5919S ORF1b:R7014N S:A222V S:D614G ORF8:A55T N:A220V ORF10:V30L		20	2	20	2	0	0	0	0	206
21	seq29	seq29	B.1.177	6kmiYsj1TbarTUrMrQQJomC4SCQ	C241T T445C A1558G C2040T C3037T C4927T C6286T G14118A C14408T C16948T C17288T C18981T C20320T G21255C C22227T A23403G G25907A C26801G G28089T del:28093:3 C28708T C28932T C29366T G29645T C29769T	ORF1a:I431M ORF1a:T592I ORF1b:I431M ORF1b:T592I ORF1b:P4715L ORF1b:P5562S ORF1b:T5675I ORF1b:H6686Y S:A222V S:D614G ORF3a:G172D ORF8:G66C ORF8:del:67:2 N:A220V N:P365S ORF10:V30L		25	2	24	2	0	0	1	0	320
22	seq3	seq3	B.1.177	wv5QCtpQmy1Vg1foZmkSNHDi/UU	G204T C241T T445C C1616T C3037T C6286T C6840T A11533G C14408T G21255C C21614T C22227T A23403G C24334T C25433T G25690T T26424C C26801G C27944T C28932T G29645T	ORF1a:L451F ORF1a:A2192V ORF1b:L451F ORF1b:A2192V ORF1b:P4715L S:L18F S:A222V S:D614G ORF3a:T14I ORF3a:G100C N:A220V ORF10:V30L		21	4	21	4	0	0	0	0	73
23	seq30	seq30	B.1	wGet/NlU+fryArlS+hHyRmA/iDo	C241T C1627G G2407A C3037T G5008T C6633T C7119T G8084A C8311T C9319T C10279T del:11288:9 G11521T C12473T C14403T C14408T C15324T G19962A C21575T C21637T T22191C T22882G G23012A A23403G T24194C G24368A C24378T C24642T G25565A G26211T C26606T T26767C G27459T del:28271:1 C28311T G28875T C28887T	ORF1a:A2123V ORF1a:S2285F ORF1a:E2607K ORF1a:del:3675:3 ORF1a:M3752I ORF1b:A2123V ORF1b:S2285F ORF1b:E2607K ORF1b:del:3675:3 ORF1b:M3752I ORF1b:P4715L S:L5F S:I210T S:N440K S:E484K S:D614G S:D936N S:S939F S:T1027I ORF3a:S58N M:I82T ORF7a:E22D N:P13L N:S201I N:T205I		37	10	35	10	0	0	2	0	78
24	seq31	seq31	B.1.177	HiwtbwEzDA1/DLRaQ3PIVLganU0	C241T T445C C3037T C6286T C13358A A13456G C14408T C15237T C19524T G21255C C21304A G21305A C22227T T22399C A23403G C26801G C26936T G28056A C28932T G29645T	ORF1a:L4365I ORF1b:L4365I ORF1b:P4715L ORF1b:R7014N S:A222V S:D614G ORF8:A55T N:A220V ORF10:V30L		20	3	20	3	0	0	0	0	56
25	seq32	seq32	B.1.1.7	kGBMVhfDzi4LTLdU+KUVRwkMdtA	C241T C913T A2270G C3037T C3267T C4084T C5388A C5986T T6954C C11020T del:11288:9 C14408T C14676T C15279T T16176C del:21765:6 del:21991:3 A23063T C23271A A23403G C23604A C23709T T24506G G24914C C27972T G28048T A28111G del:28271:1 G28280C A28281T T28282A G28881A G28882A G28883C C28977T	ORF1a:K669E ORF1a:T1001I ORF1a:A1708D ORF1a:I2230T ORF1a:del:3675:3 ORF1b:K669E ORF1b:T1001I ORF1b:A1708D ORF1b:I2230T ORF1b:del:3675:3 ORF1b:P4715L S:del:68:3 S:del:143:2 S:N501Y S:A570D S:D614G S:P681H S:T716I S:S982A S:D1118H ORF8:Q27* ORF8:R52I ORF8:Y73C N:D3L N:R203K N:G204R N:S235F		35	9	31	7	0	0	4	2	59
26	seq33	seq33	B.1.177	yNtkDAZKzgD/UxF2EumBEj+4Q5c	G204T C241T T445C A1206G C3037T C3429T A6273T C6286T A6328G A8780G C14408T G19918T G21255C C21614T C21714T A21924T C22227T A23403G C25916T C26801G C27944T del:28087:6 C28932T G29645T	ORF1a:Q314R ORF1a:T1055I ORF1a:Y2003F ORF1a:S2839G ORF1b:Q314R ORF1b:T1055I ORF1b:Y2003F ORF1b:S2839G ORF1b:P4715L ORF1b:G6552C S:L18F S:T51I S:N121I S:A222V S:D614G ORF3a:T175I ORF8:del:65:3 N:A220V ORF10:V30L		24	5	23	5	0	0	1	0	241
27	seq34	seq34	B.1	NVyD8zrE4YXkDbdY+RB02lpVZYE	C241T C311T C1288T C3037T G5230T C10747T C14408T C16667T G16754A C16859T A23403G C23413T A23800T G25429T C25916T G25996A G28068T C28854T	ORF1a:L16F ORF1a:K1655N ORF1b:L16F ORF1b:K1655N ORF1b:P4715L ORF1b:T5468I ORF1b:R5497K ORF1b:A5532V S:D614G ORF3a:V13L ORF3a:T175I ORF3a:V202I ORF8:E59* N:S194L		18	3	18	3	0	0	0	0	73
28	seq35	seq35	B.1.1.7	BFkcRKteXZU7KmLLg5xPE85iq5g	C241T C913T G1583A C3037T C3267T T4732C C5388A C5986T C6258T T6954C del:11288:9 C14408T C14676T T15096C C15279T A15667G T16176C G18686T C21381T del:21765:6 del:21991:3 A23063T C23271A A23403G C23604A C23709T T24506G G24914C C27972T G28048T A28095T A28111G del:28271:1 G28280C A28281T T28282A G28881A G28882A G28883C C28977T	ORF1a:G440R ORF1a:T1001I ORF1a:A1708D ORF1a:T1998I ORF1a:I2230T ORF1a:del:3675:3 ORF1b:G440R ORF1b:T1001I ORF1b:A1708D ORF1b:T1998I ORF1b:I2230T ORF1b:del:3675:3 ORF1b:P4715L ORF1b:N5135D ORF1b:C6141F S:del:68:3 S:del:143:2 S:N501Y S:A570D S:D614G S:P681H S:T716I S:S982A S:D1118H ORF8:Q27* ORF8:R52I ORF8:K68* ORF8:Y73C N:D3L N:R203K N:G204R N:S235F		40	9	36	7	0	0	4	2	57
29	seq36	seq36	B.1.1.7	UwcIbJQEWZQsN1fp98sHE9y0Z44	C241T A438G C913T C3037T C3267T C5388A C5986T T6954C T8305C del:11288:9 C14408T C14676T T15096C C15279T T16176C G16827A A17959G del:21765:6 del:21991:3 A22011T G23012A A23063T C23271A A23403G C23604A C23709T T24506G G24914C C27972T G28048T A28095T A28111G del:28271:1 G28280C A28281T T28282A G28881A G28882A G28883C C28977T G29706T	ORF1a:K58R ORF1a:T1001I ORF1a:A1708D ORF1a:I2230T ORF1a:del:3675:3 ORF1b:K58R ORF1b:T1001I ORF1b:A1708D ORF1b:I2230T ORF1b:del:3675:3 ORF1b:P4715L ORF1b:I5899V S:del:68:3 S:del:143:2 S:K150I S:E484K S:N501Y S:A570D S:D614G S:P681H S:T716I S:S982A S:D1118H ORF8:Q27* ORF8:R52I ORF8:K68* ORF8:Y73C N:D3L N:R203K N:G204R N:S235F		41	11	37	9	0	0	4	2	72
30	seq37	seq37	B.1	IVLwDO6gSTB0hNQhoj30pmFm32A	C241T G2407A C3037T C3093T G5008T C6633T G8084A C8311T C9319T del:11288:9 G11521T C12473T C14403T C14408T C15324T G19962A C21637T T22191C T22882G G23012A A23403G T24194C G24368A C24378T C24642T A25762G G26211T C26606T T26767C G27459T C27493T G27632A del:28271:1 C28311T C28441T G28875T C28887T G29751C	ORF1a:P943L ORF1a:A2123V ORF1a:E2607K ORF1a:del:3675:3 ORF1a:M3752I ORF1b:P943L ORF1b:A2123V ORF1b:E2607K ORF1b:del:3675:3 ORF1b:M3752I ORF1b:P4715L S:I210T S:N440K S:E484K S:D614G S:D936N S:S939F S:T1027I ORF3a:I124V M:I82T ORF7a:E22D ORF7a:P34S ORF7a:R80K N:P13L N:S201I N:T205I		38	9	36	9	0	0	2	0	38
31	seq38	seq38	B.1.177	6pVi8ZG1imv23I/SEf5/PmR//G8	C241T T445C C1513T del:2663:2 C3037T del:5513:3 C6286T G6532T T7612C C7851T A10323G del:12502:2 del:13469:2 C14408T C15559CT G21255C C22227T A23403G del:24692:2 C26801G del:28271:1 C28932T del:29118:1 G29645T	ORF1a:del:800:1 ORF1a:del:1750:1 ORF1a:E2089D ORF1a:A2529V ORF1a:K3353R ORF1a:del:4079:2 ORF1a:del:4402:1 ORF1b:del:800:1 ORF1b:del:1750:1 ORF1b:E2089D ORF1b:A2529V ORF1b:K3353R ORF1b:del:4079:2 ORF1b:del:4402:1 ORF1b:P4715L S:A222V S:D614G S:del:1044:1 N:A220V N:del:282:1 ORF10:V30L	del:2663:2 del:12502:2 del:13469:2 C15559CT del:24692:2 del:29118:1	24	3	16	2	1	0	7	1	301
32	seq39	seq39	B.1	Fi8GxO8ggTX8Ef5rfCbflshSBrc	C241T G376T T469C G1640A C3037T T7767C T7984C C8047T G11365T T11459G T12313C C14408T C17104T T17154C G18214A A18671T C18796T A20268G T21995C C22879A A23403G C24919T G25526T T26761C A28750T G28851T G29468C G29734C	ORF1a:E37D ORF1a:V459I ORF1a:I2501T ORF1a:S3732A ORF1b:E37D ORF1b:V459I ORF1b:I2501T ORF1b:S3732A ORF1b:P4715L ORF1b:H5614Y ORF1b:G5984S ORF1b:D6136V S:Y145H S:N439K S:D614G ORF3a:W45L M:I80T N:S193I N:D399H		28	4	28	4	0	0	0	0	63
33	seq4	seq4	B.1.177	+AyW5f0HpxExM5cFyZTWpSvTaxo	del:1:54 G204T C241T C3037T C6286T C14408T C21614T C22227T A23403G G24586A T24903C C28932T del:29714:190	ORF1b:P4715L S:L18F S:A222V S:D614G S:I1114T N:A220V		13	5	11	5	0	0	2	0	154
34	seq40	seq40	B.1.1.7	JT06BxeQcGUbEGdQbKPAIarQIYA	C241T C913T C3037T C3267T C5388A C5986T C6402T T6954C A9419G del:11288:9 C14408T C14676T C15279T T16176C A21137G del:21765:6 del:21991:3 A23063T C23271A A23403G C23604A C23709T T24506G G24914C C25603T C27972T G28048T A28111G del:28271:1 G28280C A28281T T28282A G28881A G28882A G28883C C28977T	ORF1a:T1001I ORF1a:A1708D ORF1a:P2046L ORF1a:I2230T ORF1a:I3052V ORF1a:del:3675:3 ORF1b:T1001I ORF1b:A1708D ORF1b:P2046L ORF1b:I2230T ORF1b:I3052V ORF1b:del:3675:3 ORF1b:P4715L ORF1b:K6958R S:del:68:3 S:del:143:2 S:N501Y S:A570D S:D614G S:P681H S:T716I S:S982A S:D1118H ORF8:Q27* ORF8:R52I ORF8:Y73C N:D3L N:R203K N:G204R N:S235F		36	9	32	7	0	0	4	2	12
35	seq41	seq41	B.1.177	bt5PR+97KpRu3yCHgzozLTzAf98	C241T T445C C3037T C6286T C13358A A13456G C14408T C19524T G21255C C21304A G21305A G21372A C22227T T22399C A23403G C26801G C26936T C27509G G28056A C28932T G29645T	ORF1a:L4365I ORF1b:L4365I ORF1b:P4715L ORF1b:R7014N S:A222V S:D614G ORF7a:T39R ORF8:A55T N:A220V ORF10:V30L		21	3	21	3	0	0	0	0	18
36	seq42	seq42	B.1.177	t2NoxPjm+sGGgTyXVGuFRyepOTE	C241T T445C C3037T C6286T C10156T C13358A A13456G C14408T C15952T C19524T G21255C C21304A G21305A C22227T T22399C A23403G C25162A C25163A C26801G C26936T G28056A C28932T C29366T G29645T	ORF1a:L4365I ORF1b:L4365I ORF1b:P4715L ORF1b:R7014N S:A222V S:D614G S:Q1201K ORF8:A55T N:A220V N:P365S ORF10:V30L		24	5	24	5	0	0	0	0	212
37	seq43	seq43	B.1.1.7	FD5Fhc/r4lAeognbQuanHR9jH/M	C241T C913T C3037T C3267T C5388A C5944T C5986T T6954C T9097G C9857T del:11288:9 C14408T C14676T T15096C C15279T T16176C C16362T T18699C G18948T del:21765:6 del:21991:3 A23063T C23271A A23403G C23604A C23709T T24506G G24914C G26640T C27972T G28048T A28095T A28111G del:28271:1 G28280C A28281T T28282A G28881A G28882A G28883C G28884C C28977T del:29726:1	ORF1a:T1001I ORF1a:A1708D ORF1a:I2230T ORF1a:del:3675:3 ORF1b:T1001I ORF1b:A1708D ORF1b:I2230T ORF1b:del:3675:3 ORF1b:P4715L S:del:68:3 S:del:143:2 S:N501Y S:A570D S:D614G S:P681H S:T716I S:S982A S:D1118H M:A40S ORF8:Q27* ORF8:R52I ORF8:K68* ORF8:Y73C N:D3L N:R203K N:G204P N:S235F		43	9	38	7	0	0	5	2	23
38	seq44	seq44	B.1.1.7	0p9DbAepIJkPwKGImfCmXTpGxxs	C173T C241T C913T C2110T A2356C C3037T C3267T C4582T C5388A C5986T T6954C del:11288:9 C14120T C14408T C14676T C15279T T16176C C16308T C16575T C17410T C19390T C20823T del:21765:6 del:21991:3 A23063T C23271A A23403G C23604A C23709T T24506G G24914C T25622C C27434T C27972T G28048T A28095T A28111G del:28271:1 G28280C A28281T T28282A G28827C G28881A G28882A G28883C C28977T	ORF1a:T1001I ORF1a:A1708D ORF1a:I2230T ORF1a:del:3675:3 ORF1b:T1001I ORF1b:A1708D ORF1b:I2230T ORF1b:del:3675:3 ORF1b:P4619L ORF1b:P4715L ORF1b:R5716C ORF1b:P6376S S:del:68:3 S:del:143:2 S:N501Y S:A570D S:D614G S:P681H S:T716I S:S982A S:D1118H ORF3a:V77A ORF7a:T14I ORF8:Q27* ORF8:R52I ORF8:K68* ORF8:Y73C N:D3L N:R185P N:R203K N:G204R N:S235F		46	9	42	7	0	0	4	2	70
39	seq45	seq45	B.1.177	90O1un6VucXFRlfT/KbJhUXjA3U	C241T T445C C3037T C3593T C4010T C5170T C6286T C8140T G11132T C14408T A17460G C21077T G21255C C22227T A23403G G23587T A25438G C26801G C27982T C28932T G29645T	ORF1a:L1110F ORF1a:L1249F ORF1a:A3623S ORF1b:L1110F ORF1b:L1249F ORF1b:A3623S ORF1b:P4715L ORF1b:T6938I S:A222V S:D614G S:Q675H ORF3a:K16E ORF8:P30L N:A220V ORF10:V30L		21	3	21	3	0	0	0	0	4
40	seq46	seq46	B.1.177	KvBjHhQcq5ESlDTFaQ8ftqyOoRE	T445C C3037T T3067C C5184T C6286T C14408T G21255C C21614T C22227T A23403G C24334T T25209C C26801G C27769T C27944T G29645T	ORF1a:P1640L ORF1b:P1640L ORF1b:P4715L S:L18F S:A222V S:D614G S:I1216T ORF7b:S5L ORF10:V30L		16	5	16	5	0	0	0	0	484
41	seq5	seq5	B.1	Iqx1m3ip/9Unr7Q2chGi8z8w3Ws	C241T G1464A C3037T A4452G C6666T C7528T T7767C C8047T T8156C A10978T G11230A C14408T C14583T C16726T T17040C C17104T A20268G T20799C C22879A G23264A A23403G C23604A C26636T A28951G G29734C G29755T	ORF1a:G400D ORF1a:K1396R ORF1a:P2134L ORF1a:I2501T ORF1a:S2631P ORF1a:M3655I ORF1b:G400D ORF1b:K1396R ORF1b:P2134L ORF1b:I2501T ORF1b:S2631P ORF1b:M3655I ORF1b:P4715L ORF1b:H5488Y ORF1b:H5614Y S:N439K S:D568N S:D614G S:P681H		26	4	26	4	0	0	0	0	628
42	seq6	seq6	B.1.177	dS4pazfZot8U93Mj2qrCHzmSMzA	G204T C241T T445C C1875T C3037T C3903T A4336T C5869T C6286T C6573T C6633T C11325T G12243T C12789T C14408T C17127T C17528T C19488T G21255C C21614T C22227T A23403G C26801G C27944T C28932T G29645T	ORF1a:A537V ORF1a:P1213L ORF1a:S2103F ORF1a:A2123V ORF1a:S3687L ORF1a:R3993L ORF1a:T4175I ORF1b:A537V ORF1b:P1213L ORF1b:S2103F ORF1b:A2123V ORF1b:S3687L ORF1b:R3993L ORF1b:T4175I ORF1b:P4715L ORF1b:T5755I S:L18F S:A222V S:D614G N:A220V ORF10:V30L		26	3	26	3	0	0	0	0	170
43	seq7	seq7	B.1.177	M8vABZsQnoht/YfPktVNWKwjqe0	G204T C241T T445C C1875T C3037T C3903T A4336T C5869T C6286T C6573T C6633T C11325T G12243T C12789T C14408T C17127T C17528T C19488T G21255C C21614T C22227T A23403G C26801G C27944T C28932T G29645T	ORF1a:A537V ORF1a:P1213L ORF1a:S2103F ORF1a:A2123V ORF1a:S3687L ORF1a:R3993L ORF1a:T4175I ORF1b:A537V ORF1b:P1213L ORF1b:S2103F ORF1b:A2123V ORF1b:S3687L ORF1b:R3993L ORF1b:T4175I ORF1b:P4715L ORF1b:T5755I S:L18F S:A222V S:D614G N:A220V ORF10:V30L		26	3	26	3	0	0	0	0	22
44	seq8	seq8	B.1.1.7	Lz1sVVYcy9j8Xo8aXwJUbXja2Ao	C241T C913T C3037T C3267T G3638T T4756C C5388A C5986T T6954C del:11288:9 C12885T C14408T C14676T C15279T T16176C G17427T del:21765:6 C21855T del:21991:3 A23063T C23271A A23403G C23604A C23709T T24506G G24914C C25096T G26158T C27972T G28048T A28111G del:28271:1 G28280C A28281T T28282A G28881A G28882A G28883C C28977T	ORF1a:T1001I ORF1a:G1125C ORF1a:A1708D ORF1a:I2230T ORF1a:del:3675:3 ORF1a:T4207I ORF1b:T1001I ORF1b:G1125C ORF1b:A1708D ORF1b:I2230T ORF1b:del:3675:3 ORF1b:T4207I ORF1b:P4715L S:del:68:3 S:S98F S:del:143:2 S:N501Y S:A570D S:D614G S:P681H S:T716I S:S982A S:D1118H ORF3a:V256F ORF8:Q27* ORF8:R52I ORF8:Y73C N:D3L N:R203K N:G204R N:S235F		39	11	35	9	0	0	4	2	34
45	seq9	seq9	A.27	qZ+E6ldc0YauwGN6jnR0X5pDQ2k	A361G C1122T C2509T C8782T A9204G A11217G C16293T C16466T A18366G A20262G C21614T G22468T T22917G A23063T C23520T C23525T G23948T G25218T T25541C del:26160:8 C27247T del:27386:1 T28144C del:28248:6 A28273T G28878A G29688C G29742A	ORF1a:P286L ORF1a:D2980G ORF1a:N3651S ORF1b:P286L ORF1b:D2980G ORF1b:N3651S ORF1b:P5401L S:L18F S:L452R S:N501Y S:A653V S:H655Y S:D796Y S:G1219V ORF3a:V50A ORF3a:del:256:4 ORF6:del:62:1 ORF8:L84S ORF8:del:119:2 N:S202N	del:26160:8 del:27386:1	28	8	25	8	0	0	3	0	15
